\relax 
\citation{Pita:2008:DAP:1402795.1402819}
\citation{CoastGuard}
\citation{Fang,Wang2019}
\citation{GameTheory}
\citation{Letchford}
\citation{Marecki}
\citation{Kiekintveld:2013:SGI:2484920.2484959}
\providecommand\@newglossary[4]{}
\@newglossary{main}{glg}{gls}{glo}
\@newglossary{acronym}{alg}{acr}{acn}
\@writefile{toc}{\contentsline {title}{A Game Of Double Agents: Repeated Stackelberg Games with Role Switch}{1}}
\@writefile{toc}{\authcount {3}}
\@writefile{toc}{\contentsline {author}{Matteo Murari \and Alessandro Farinelli \and Riccardo Sartea}{1}}
\@writefile{toc}{\contentsline {section}{\numberline {1}Introduction}{1}}
\newlabel{sec:intro}{{1}{1}}
\citation{Nguyen,SUQR}
\citation{Kar:2015:GTH:2772879.2773329}
\citation{Williamson,Sartea2}
\citation{Raffetseder}
\citation{Pita:2008:DAP:1402795.1402819}
\@writefile{toc}{\contentsline {section}{\numberline {2}Background}{3}}
\newlabel{sec:background}{{2}{3}}
\@writefile{toc}{\contentsline {subsection}{\numberline {2.1}Bayesian Stackelberg game}{3}}
\@writefile{toc}{\contentsline {subsection}{\numberline {2.2}\acrfull {ac:mcts}}{3}}
\newlabel{sec:mctsBack}{{2.2}{3}}
\citation{Marecki}
\citation{Sartea2}
\citation{Kocsis}
\@writefile{lof}{\contentsline {figure}{\numberline {1}{\ignorespaces \acrlong {ac:mcts} scheme}}{4}}
\newlabel{fig:mcts}{{1}{4}}
\@writefile{toc}{\contentsline {section}{\numberline {3}Proposed Methodology}{4}}
\newlabel{sec:method}{{3}{4}}
\newlabel{def:ssrg}{{1}{4}}
\citation{Conitzer}
\citation{Conitzer}
\citation{Conitzer}
\@writefile{toc}{\contentsline {subsection}{\numberline {3.1}Assumptions and complexity results}{5}}
\newlabel{sec:gameFeatures}{{3.1}{5}}
\newlabel{cor:hardness1}{{1}{5}}
\citation{Conitzer}
\newlabel{cor:hardness2}{{2}{6}}
\@writefile{toc}{\contentsline {subsection}{\numberline {3.2}Solution Method: \acrshort {ac:safe}}{6}}
\newlabel{sec:framework}{{3.2}{6}}
\@writefile{lof}{\contentsline {figure}{\numberline {2}{\ignorespaces Overview of \gls {ac:safe} (master acting as leader)}}{7}}
\newlabel{fig:overviewLeader}{{2}{7}}
\newlabel{sec:switch}{{3.2}{7}}
\@writefile{toc}{\contentsline {subsubsection}{\gls {ac:rsp}}{7}}
\citation{Kocsis}
\citation{Sartea2}
\@writefile{loa}{\contentsline {algorithm}{\numberline {1}{\ignorespaces \textsc  {\acrfull {ac:rsp}}}}{8}}
\newlabel{alg:line1}{{2}{8}}
\newlabel{alg:rest1}{{3}{8}}
\newlabel{alg:firstRound}{{5}{8}}
\newlabel{alg:return}{{6}{8}}
\newlabel{alg:rsp}{{1}{8}}
\newlabel{sec:mcts}{{3.2}{8}}
\@writefile{toc}{\contentsline {subsubsection}{\acrfull {ac:mcts}}{8}}
\citation{MovingAverage}
\newlabel{sec:beliefs}{{3.2}{9}}
\@writefile{toc}{\contentsline {subsubsection}{Reward estimation}{9}}
\citation{Nudelman}
\@writefile{toc}{\contentsline {section}{\numberline {4}Empirical Evaluation}{10}}
\newlabel{sec:experiment}{{4}{10}}
\@writefile{toc}{\contentsline {subsection}{\numberline {4.1}Synthetic Games}{10}}
\newlabel{sec:syntheticGames}{{4.1}{10}}
\@writefile{lof}{\contentsline {figure}{\numberline {3}{\ignorespaces Average of the expected rewards obtained across the rounds of a single instance \gls {ac:ssrg} considering $4$ \gls {ac:rsp} implementations (L and F indicate the role chosen by the master)}}{11}}
\newlabel{fig:syntheticExpResults}{{3}{11}}
\@writefile{lof}{\contentsline {figure}{\numberline {4}{\ignorespaces The heat map representing how \gls {ac:rsp} changes the probability distribution of role assignment as the \gls {ac:ssrg} referred by figure\nobreakspace  {}3\hbox {} progresses}}{11}}
\newlabel{fig:syntheticHeatmap}{{4}{11}}
\@writefile{lof}{\contentsline {figure}{\numberline {5}{\ignorespaces For each \gls {ac:rsp} method, the box plot reports the average of the averages expected rewards obtained from the $100$ \gls {ac:ssrg} instances faced}}{13}}
\newlabel{fig:syntheticAvgAvg}{{5}{13}}
\@writefile{toc}{\contentsline {subsection}{\numberline {4.2}Malware Analysis}{13}}
\newlabel{sec:malware}{{4.2}{13}}
\citation{Raffetseder}
\citation{Sartea2}
\citation{Sartea2}
\citation{MalwareData}
\citation{Martin}
\citation{Sartea2}
\@writefile{lot}{\contentsline {table}{\numberline {1}{\ignorespaces Discovered malicious behaviors comparison}}{15}}
\newlabel{tb:comp}{{1}{15}}
\bibstyle{splncs04}
\bibdata{bibliography}
\bibcite{CoastGuard}{1}
\bibcite{SUQR}{2}
\@writefile{toc}{\contentsline {section}{\numberline {5}Conclusions}{16}}
\newlabel{sec:conclusions}{{5}{16}}
\bibcite{Conitzer}{3}
\bibcite{Fang}{4}
\bibcite{GameTheory}{5}
\bibcite{Kar:2015:GTH:2772879.2773329}{6}
\bibcite{MovingAverage}{7}
\bibcite{Kiekintveld:2013:SGI:2484920.2484959}{8}
\bibcite{Kocsis}{9}
\bibcite{Letchford}{10}
\bibcite{Marecki}{11}
\bibcite{Martin}{12}
\bibcite{Nguyen}{13}
\bibcite{Nudelman}{14}
\bibcite{Pita:2008:DAP:1402795.1402819}{15}
\bibcite{Raffetseder}{16}
\bibcite{Sartea2}{17}
\bibcite{Wang2019}{18}
\bibcite{MalwareData}{19}
\bibcite{Williamson}{20}
