1,36.110589487496995,51.99849837530407
1,37.260920969518764,0.0
1,25.68502723021429,0.0
1,22.50218475158033,0.0
1,20.357128360396956,51.99849837530407
1,30.74593683687182,51.99849837530407
1,27.955198423162784,51.99849837530407
1,26.73746689717874,51.99849837530407
1,27.73055288603784,0.0
1,25.588287470628252,51.99849837530407
1,30.75341915148586,51.99849837530407
1,38.801356318795364,0.0
1,27.542508751407986,0.0
1,25.213415739551166,0.0
1,24.387117936933556,51.99849837530407
1,28.72676263605808,0.0
1,26.37344954590104,51.99849837530407
1,29.46107258838723,51.99849837530407
1,29.95002211572707,0.0
1,26.19702283007078,51.99849837530407

